[
  { 
    "featureType": "all",
    "elementType": "labels",
    "stylers": [
      { "visibility": "off" }
    ]
  },
  {
    "featureType": "administrative",
    "elementType": "all",
    "stylers": [
      {"visibility": "off"},
      {"color": "#efebe2"}
    ]
  },
  {
    "featureType": "landscape",
    "elementType": "all",
    "stylers": [
      {"color": "#efebe2"}
    ]
  },
  {
    "featureType": "poi",
    "elementType": "all",
    "stylers": [
      {"color": "#efebe2"}
    ]
  },
  {
    "featureType": "poi.attraction",
    "elementType": "all",
    "stylers": [
      {"color": "#efebe2"}
    ]
  },
  {
    "featureType": "poi.business",
    "elementType": "all",
    "stylers": [
      {"color": "#efebe2"}
    ]
  },
  {
    "featureType": "poi.government",
    "elementType": "all",
    "stylers": [
      {"color": "#dfdcd5"}
    ]
  },
  {
    "featureType": "poi.medical",
    "elementType": "all",
    "stylers": [
      {"color": "#dfdcd5"}
    ]
  },
  {
    "featureType": "poi.park",
    "elementType": "all",
    "stylers": [
      {"color": "#bad294"}
    ]
  },
  {
    "featureType": "poi.place_of_worship",
    "elementType": "all",
    "stylers": [
      {"color": "#efebe2"}
    ]
  },
  {
    "featureType": "poi.school",
    "elementType": "all",
    "stylers": [
      {"color": "#efebe2"}
    ]
  },
  {
    "featureType": "poi.sports_complex",
    "elementType": "all",
    "stylers": [
      {"color": "#efebe2"}
    ]
  },
  {
    "featureType": "road.highway",
    "elementType": "geometry.fill",
    "stylers": [
      {"color": "#ffffff"}
    ]
  },
  {
    "featureType": "road.highway",
    "elementType": "geometry.stroke",
    "stylers": [
      {"visibility": "off"}
    ]
  },
  {
    "featureType": "road.arterial",
    "elementType": "geometry.fill",
    "stylers": [
      {"color": "#ffffff"}
    ]
  },
  {
    "featureType": "road.arterial",
    "elementType": "geometry.stroke",
    "stylers": [
      {"visibility": "off"}
    ]
  },
  {
    "featureType": "road.local",
    "elementType": "geometry.fill",
    "stylers": [
      {"color": "#fbfbfb"}
    ]
  },
  {
    "featureType": "road.local",
    "elementType": "geometry.stroke",
    "stylers": [
      {"visibility": "off"}
    ]
  },
  {
    "featureType": "transit",
    "elementType": "all",
    "stylers": [
      {"visibility": "off"}
    ]
  },
  {
    "featureType": "water",
    "elementType": "all",
    "stylers": [
      {"color": "#a5d7e0"}
    ]
  },
  {
    "featureType": "road",
    "elementType": "labels",
    "stylers": [
      {"visibility": "on"}
    ]
  }
]